Map block groups and community districts
…
## # A tibble: 3,368 x 5
##    GEOID        NAME                                     variable estimate   moe
##    <chr>        <chr>                                    <chr>       <dbl> <dbl>
##  1 200910500001 Block Group 1, Census Tract 500, Johnso~ B01001_~        0    11
##  2 200910500001 Block Group 1, Census Tract 500, Johnso~ B01001_~       50    49
##  3 200910500002 Block Group 2, Census Tract 500, Johnso~ B01001_~       21    15
##  4 200910500002 Block Group 2, Census Tract 500, Johnso~ B01001_~       18    17
##  5 200910500003 Block Group 3, Census Tract 500, Johnso~ B01001_~       28    16
##  6 200910500003 Block Group 3, Census Tract 500, Johnso~ B01001_~       14    11
##  7 200910500004 Block Group 4, Census Tract 500, Johnso~ B01001_~       36    22
##  8 200910500004 Block Group 4, Census Tract 500, Johnso~ B01001_~        8     9
##  9 200910500005 Block Group 5, Census Tract 500, Johnso~ B01001_~       19    25
## 10 200910500005 Block Group 5, Census Tract 500, Johnso~ B01001_~        0    11
## # ... with 3,358 more rows
## 
## 
## 
## 
## [1] "Annotate maps creates the following functions"
## conditional_glimpse : function (x)  
## conditional_print : function (x)  
## download_acs : function (vlist)  
…
